[
	{
		"service_code": "4849671",
		"service_name": "Parques y Jardines",
		"description": "Parques, Jardines, mobiliario infantil, aspersores,alcorques, podas, bancos, fuentes",
		"metadata": false,
		"type": "realtime"
	}, {
		"service_code": "4849666",
		"service_name": "Policia: Oficina General",
		"description": "Actuaciones policiales, Multas,objetos perdidos, autorizaciones en la calle,informes policiales,atestados,vehículos abandonados en vía pública",
		"metadata": false,
		"type": "realtime"
	}, {
		"service_code": "5144578",
		"service_name": "Servicios Publicos: General",
		"description": "Actos y Permisos en Via publica,Fiestas,Peñas,Venta Ambulante,Mercados,Veladores,Tarjetas discapacitados, Mobiliario,Urbano,Publicidad (MUPIS)",
		"metadata": false,
		"type": "realtime"
	}, {
		"service_code": "5144587",
		"service_name": "Urbanismo",
		"description": "Información urbanística general, carteles calles",
		"metadata": false,
		"type": "realtime"
	}, {
		"service_code": "7733248",
		"service_name": "Movilidad Urbana",
		"description": "Transporte, Circulación,plazas aparcamientos, vallas. Señalización horizontal y vertical, pivotes. Obras Tranvía",
		"metadata": false,
		"type": "realtime"
	}, {
		"service_code": "4849670",
		"service_name": "Buzón del Alcalde",
		"description": "Politica Municipal en general,correos directos al Alcalde",
		"metadata": false,
		"type": "realtime"
	}, {
		"service_code": "4849665",
		"service_name": "Turismo",
		"description": "Información turística: planos, fotos, visitas guidas",
		"metadata": false,
		"type": "realtime"
	}, {
		"service_code": "4849669",
		"service_name": "Infraestructuras:Conservacion",
		"description": "Incidencias en Vía Pública:aceras en mal estado,baldosas rotas,baches,pivotes",
		"metadata": false,
		"type": "realtime"
	}, {
		"service_code": "5144577",
		"service_name": "Alumbrado Publico",
		"description": "Problemas luz,farolas fundidas.",
		"metadata": false,
		"type": "realtime"
	}, {
		"service_code": "5144580",
		"service_name": "Zaragoza Cultural",
		"description": "Fiestas (del Pilar, Navidad),Concursos Jotas, Cartel actividades culturales",
		"metadata": false,
		"type": "realtime"
	}, {
		"service_code": "9043969",
		"service_name": "Bicicletas",
		"description": "Estaciones Bizi,carriles,circulación bicicletas",
		"metadata": false,
		"type": "realtime"
	}, {
		"service_code": "5472256",
		"service_name": "Escuelas Infantiles",
		"description": "Matriculas, horarios, servicios y direcciones Escuelas Infantiles",
		"metadata": false,
		"type": "realtime"
	}, {
		"service_code": "4849672",
		"service_name": "Limpieza Pública",
		"description": "Gestión de Residuos,Limpieza de calles,contenedores,Puntos Limpios",
		"metadata": false,
		"type": "realtime"
	}, {
		"service_code": "5144585",
		"service_name": "Bibliotecas Municipales",
		"description": "Bibliotecas municipales:actividades, edificios,horarios.",
		"metadata": false,
		"type": "realtime"
	}, {
		"service_code": "15564801",
		"service_name": "Jurídico Servicios Públicos",
		"description": "Fiestas de Barrios, Venta Ambulante,Taxis",
		"metadata": false,
		"type": "realtime"
	}, {
		"service_code": "5931009",
		"service_name": "Infraestructuras:Explotacion",
		"description": "Cortes de Agua, denuncias de vertido de agua, saneamiento de tuberías, alcantarillas",
		"metadata": false,
		"type": "realtime"
	}, {
		"service_code": "6029312",
		"service_name": "Archivo Municipal",
		"description": "Documentos históricos y municipales,Archivo Palafox,búsqueda de antepasados",
		"metadata": false,
		"type": "realtime"
	}, {
		"service_code": "5144582",
		"service_name": "Cementerio",
		"description": "Cementerio, nichos",
		"metadata": false,
		"type": "realtime"
	}, {
		"service_code": "4849674",
		"service_name": "Prueba",
		"description": " ",
		"metadata": false,
		"type": "realtime"
	}, {
		"service_code": "4784129",
		"service_name": "Web Municipal",
		"description": " ",
		"metadata": false,
		"type": "realtime"
	}, {
		"service_code": "5144576",
		"service_name": "Instalaciones Deportivas",
		"description": "Pabellones y Centros Deportivos, Piscinas",
		"metadata": false,
		"type": "realtime"
	}, {
		"service_code": "4030465",
		"service_name": "Agua",
		"description": "facturas, contadores, cambios de titularidad",
		"metadata": false,
		"type": "realtime"
	}, {
		"service_code": "5144579",
		"service_name": "Instituto Mpal. Salud Publica",
		"description": "Salud Pública, plagas, protección animal, Higiene alimentaria, calidad de aguas, análisis de laboratorios.",
		"metadata": false,
		"type": "realtime"
	}, {
		"service_code": "5144586",
		"service_name": "Padrón Municipal",
		"description": "Padron,Estadisticas,Elecciones,Censo electoral",
		"metadata": false,
		"type": "realtime"
	}, {
		"service_code": "9043968",
		"service_name": "Patrimonio Cultural",
		"description": "Nombres de calles,préstamo obras de arte,exposiciones",
		"metadata": false,
		"type": "realtime"
	}, {
		"service_code": "4849668",
		"service_name": "Participacion Ciudadana",
		"description": "censos, convenios,subvenciones, consejo ciudad,asociaciones",
		"metadata": false,
		"type": "realtime"
	}, {
		"service_code": "4849673",
		"service_name": "Medioambiente",
		"description": "Medio Ambiente, malos olores, Agenda 21, Sostenibilidad, Educación ambiental,Voluntariado,Galacho de Juslibol",
		"metadata": false,
		"type": "realtime"
	}, {
		"service_code": "5144583",
		"service_name": "Publicaciones y concursos",
		"description": "Publicaciones municipales y concursos",
		"metadata": false,
		"type": "realtime"
	}, {
		"service_code": "5144581",
		"service_name": "Personas Mayores",
		"description": "Mayores,actividades,cursos,Centros Convivencia,Parques Mayores, Voluntariado del mayor",
		"metadata": false,
		"type": "realtime"
	}, {
		"service_code": "16777216",
		"service_name": "Zaragoza Internacional",
		"description": "Política internacional, Hermanamientos",
		"metadata": false,
		"type": "realtime"
	}, {
		"service_code": "4030464",
		"service_name": "General: Atención al ciudadano",
		"description": "General: Atención al ciudadano",
		"metadata": false,
		"type": "realtime"
	}, {
		"service_code": "6520832",
		"service_name": "Biblioteca-hemeroteca",
		"description": "periodicos antiguos, revistas, boletines",
		"metadata": false,
		"type": "realtime"
	}, {
		"service_code": "16777217",
		"service_name": "Enseñanzas Artísticas",
		"description": "Escuela de Música y Danza, Escuela de Teatro, Conservatorio Elemental de Música, Conservatorio Profesional de Danza\n",
		"metadata": false,
		"type": "realtime"
	}, {
		"service_code": "97550336",
		"service_name": "Transporte Público",
		"description": "lineas tuzsa,lineas barrios rurales,paradas bus,paradas colegios, marquesinas. Tranvía",
		"metadata": false,
		"type": "realtime"
	}, {
		"service_code": "82182145",
		"service_name": "Administración Electrónica:Web",
		"description": "Información sobre tramitación electrónica",
		"metadata": false,
		"type": "realtime"
	}, {
		"service_code": "82182144",
		"service_name": "Centro Documentación del Agua",
		"description": "Tribuna del Agua, información ambiental",
		"metadata": false,
		"type": "realtime"
	}, {
		"service_code": "82182147",
		"service_name": "Tarjeta Ciudadana",
		"description": "incidencias sobre Tarjeta Ciudadana",
		"metadata": false,
		"type": "realtime"
	}, {
		"service_code": "97779713",
		"service_name": "Sección Señalización",
		"description": "señalización horizontal y vertical",
		"metadata": false,
		"type": "realtime"
	}, {
		"service_code": "97779712",
		"service_name": "Estacionamiento Regulado",
		"description": "zona azul, amarilla",
		"metadata": false,
		"type": "realtime"
	}, {
		"service_code": "103677952",
		"service_name": "semaforos",
		"description": "semáforos",
		"metadata": false,
		"type": "realtime"
	}, {
		"service_code": "102793216",
		"service_name": "Milla Digital",
		"description": "Wifi,milla digital,Jornadas Ciudad conocimiento, CAT,vivero empresas, DWP",
		"metadata": false,
		"type": "realtime"
	}, {
		"service_code": "106954752",
		"service_name": "Calidad de contenidos",
		"description": "actualizacion, falta de contenidos, enlaces rotos",
		"metadata": false,
		"type": "realtime"
	}, {
		"service_code": "118587392",
		"service_name": "Aquagest",
		"description": "contadores, recibos y facturas agua",
		"metadata": false,
		"type": "realtime"
	}, {
		"service_code": "188088321",
		"service_name": "Oficina Infraestructur",
		"description": "Reforma integral calles",
		"metadata": false,
		"type": "realtime"
	}
]