{
    "questionnaire": {
        
        "instructions1":"Please populate this file with the in-app questions that you want (i.e. survery title and questions 1 to 8)",
        "instructions2":"Basically, all that is needed is translation to the appropriate language",
        "instructions3":"Don't forget the colon character at the end of questions 1 to 5",
        "instructions4":"Also, enter the city and the app name as well",
        
        "city": "Zaragoza",
        "app": "zgzcollaborativemaps",
        "IESServerRatingURL" : "https://iescities.com:443/IESCities/api/log/rating/trackedresponse/",
        "surveytitle":"Evalua la app",
        "question1" : "Diseño:",
        "question2" : "Rendimiento:",
        "question3" : "Facilidad de uso:",
        "question4" : "Utilidad:",
        "question5" : "Contenidos:",
        "question6" : "Recomendarías la app?",
        "question7" : "Comentarios: ej. Razonamiento de las evaluaciones.",
        "question8" : "Opcional. Si contesta unas pocas preguntas más optará al sorteo de un premio. La información del premio y las preguntas se le enviarán por email. Por favor, indique su dirección de correo:" 
    }
}